[
   {
      "top":9,
      "id": "images/top-merchants1.png",
      "span":"Macy’s"
   },
	
   {
      "top":98,
      "id":"images/top-merchants2.png",
      "span":"Chegg"
   },
	
   {
      "top":52,
      "id":"images/top-merchants3.png",
      "span":"Walmart" 
   }
   
]