[
		{
			XAxis1: "2016-Jan-01",
			XAxis2: null,
			YAxis1: "6055",
			YAxis2: "15977",
			YAxis3: "4560"
		},
		{
			XAxis1: "2016-Feb-01",
			XAxis2: null,
			YAxis1: "6522",
			YAxis2: "1677",
			YAxis3: "6321"
		},
		{
			XAxis1: "2016-Mar-01",
			XAxis2: null,
			YAxis1: "6637",
			YAxis2: "16757",
			YAxis3: "12501"
		},
		{
			XAxis1: "2016-Apr-01",
			XAxis2: null,
			YAxis1: "5321",
			YAxis2: "16757",
			YAxis3: "8506"
		},
		{
			XAxis1: "2016-May-01",
			XAxis2: null,
			YAxis1: "1625",
			YAxis2: "16757",
			YAxis3: null
		}
	]