[{
    "heading": "Last Minute Tee Times At Really Great Deals",
    "image": "images/image2.jpg",
    "moreDetails": "<p>Lorem ipsum dolor sit amet, consectetuer adipiscing elit, sed diem nonummy euismod tincidunt ut lacreet dolore magna aliguam erat volutpat.</p>",
    "linkUrl": "#",
    "linkText": "Download App"
}, {
    "heading": "Last Minute Tee Times At Really Great Deals",
    "image": "images/image1.jpg",
    "moreDetails": "<p>Lorem ipsum dolor sit amet, consectetuer adipiscing elit, sed diem nonummy euismod tincidunt ut lacreet dolore magna aliguam erat volutpat.</p>",
    "linkUrl": "#",
    "linkText": "Download App"
}, {
    "heading": "Last Minute Tee Times At Really Great Deals",
    "image": "images/image3.jpg",
    "moreDetails": "<p>Lorem ipsum dolor sit amet, consectetuer adipiscing elit, sed diem nonummy euismod tincidunt ut lacreet dolore magna aliguam erat volutpat.</p>",
    "linkUrl": "#",
    "linkText": "Download App"
}]
